[
    [
        "C:\\Users\\User\\sfdx-simple\\geolocation\\force-app",
        {
            "state": "n",
            "sourcePath": "C:\\Users\\User\\sfdx-simple\\geolocation\\force-app",
            "isDirectory": true,
            "isMetadataFile": false,
            "size": 0,
            "modifiedTime": 1515957697855,
            "changeTime": 1515957697855,
            "contentHash": "b28b7af69320201d1cf206ebf28373980add1451",
            "isWorkspace": false,
            "isArtifactRoot": true
        }
    ],
    [
        "C:\\Users\\User\\sfdx-simple\\geolocation\\force-app\\main",
        {
            "state": "n",
            "sourcePath": "C:\\Users\\User\\sfdx-simple\\geolocation\\force-app\\main",
            "isDirectory": true,
            "isMetadataFile": false,
            "size": 0,
            "modifiedTime": 1515957697855,
            "changeTime": 1515957697855,
            "contentHash": "7505d64a54e061b7acd54ccd58b49dc43500b635",
            "isWorkspace": false,
            "isArtifactRoot": false
        }
    ],
    [
        "C:\\Users\\User\\sfdx-simple\\geolocation\\force-app\\main\\default",
        {
            "state": "n",
            "sourcePath": "C:\\Users\\User\\sfdx-simple\\geolocation\\force-app\\main\\default",
            "isDirectory": true,
            "isMetadataFile": false,
            "size": 0,
            "modifiedTime": 1515959017701,
            "changeTime": 1515959017701,
            "contentHash": "b2e413674f98340eeb6ab60f83200a9c2d0faefb",
            "isWorkspace": false,
            "isArtifactRoot": false
        }
    ],
    [
        "C:\\Users\\User\\sfdx-simple\\geolocation\\force-app\\main\\default\\aura",
        {
            "state": "n",
            "sourcePath": "C:\\Users\\User\\sfdx-simple\\geolocation\\force-app\\main\\default\\aura",
            "isDirectory": true,
            "isMetadataFile": false,
            "size": 0,
            "modifiedTime": 1515957697855,
            "changeTime": 1515957697855,
            "contentHash": "da39a3ee5e6b4b0d3255bfef95601890afd80709",
            "isWorkspace": false,
            "isArtifactRoot": false
        }
    ],
    [
        "C:\\Users\\User\\sfdx-simple\\geolocation\\force-app\\main\\default\\layouts",
        {
            "state": "n",
            "sourcePath": "C:\\Users\\User\\sfdx-simple\\geolocation\\force-app\\main\\default\\layouts",
            "isDirectory": true,
            "isMetadataFile": false,
            "size": 0,
            "modifiedTime": 1515959017696,
            "changeTime": 1515959017696,
            "contentHash": "c3490325b75a002f08b15e0b665ed75785a55464",
            "isWorkspace": false,
            "isArtifactRoot": false
        }
    ],
    [
        "C:\\Users\\User\\sfdx-simple\\geolocation\\force-app\\main\\default\\layouts\\Account-Account %28Marketing%29 Layout.layout-meta.xml",
        {
            "state": "n",
            "sourcePath": "C:\\Users\\User\\sfdx-simple\\geolocation\\force-app\\main\\default\\layouts\\Account-Account %28Marketing%29 Layout.layout-meta.xml",
            "isDirectory": false,
            "isMetadataFile": true,
            "size": 9756,
            "modifiedTime": 1515958900354,
            "changeTime": 1515958900354,
            "contentHash": "0ac2903745d3402a3279ba45b246c5286914d16d",
            "isWorkspace": false,
            "isArtifactRoot": false
        }
    ],
    [
        "C:\\Users\\User\\sfdx-simple\\geolocation\\force-app\\main\\default\\layouts\\Account-Account %28Sales%29 Layout.layout-meta.xml",
        {
            "state": "n",
            "sourcePath": "C:\\Users\\User\\sfdx-simple\\geolocation\\force-app\\main\\default\\layouts\\Account-Account %28Sales%29 Layout.layout-meta.xml",
            "isDirectory": false,
            "isMetadataFile": true,
            "size": 9708,
            "modifiedTime": 1515958900372,
            "changeTime": 1515958900372,
            "contentHash": "a6fc0c32caef3a798eea4f544a2000fc429aeb77",
            "isWorkspace": false,
            "isArtifactRoot": false
        }
    ],
    [
        "C:\\Users\\User\\sfdx-simple\\geolocation\\force-app\\main\\default\\layouts\\Account-Account %28Support%29 Layout.layout-meta.xml",
        {
            "state": "n",
            "sourcePath": "C:\\Users\\User\\sfdx-simple\\geolocation\\force-app\\main\\default\\layouts\\Account-Account %28Support%29 Layout.layout-meta.xml",
            "isDirectory": false,
            "isMetadataFile": true,
            "size": 9756,
            "modifiedTime": 1515958900387,
            "changeTime": 1515958900387,
            "contentHash": "94142c6ea19df359d8f2398924816a5498afc02e",
            "isWorkspace": false,
            "isArtifactRoot": false
        }
    ],
    [
        "C:\\Users\\User\\sfdx-simple\\geolocation\\force-app\\main\\default\\layouts\\Account-Account Layout.layout-meta.xml",
        {
            "state": "n",
            "sourcePath": "C:\\Users\\User\\sfdx-simple\\geolocation\\force-app\\main\\default\\layouts\\Account-Account Layout.layout-meta.xml",
            "isDirectory": false,
            "isMetadataFile": true,
            "size": 9708,
            "modifiedTime": 1515958900401,
            "changeTime": 1515958900401,
            "contentHash": "e85a88e4c79b0e49351c7fe72875a0a96c157ce7",
            "isWorkspace": false,
            "isArtifactRoot": false
        }
    ],
    [
        "C:\\Users\\User\\sfdx-simple\\geolocation\\force-app\\main\\default\\layouts\\SFDXTestObject__c-SFDXTestObject Layout.layout-meta.xml",
        {
            "state": "n",
            "sourcePath": "C:\\Users\\User\\sfdx-simple\\geolocation\\force-app\\main\\default\\layouts\\SFDXTestObject__c-SFDXTestObject Layout.layout-meta.xml",
            "isDirectory": false,
            "isMetadataFile": true,
            "size": 1947,
            "modifiedTime": 1515959017698,
            "changeTime": 1515959017698,
            "contentHash": "11d783040f4136795b5cfb29705ebffa45e29dff",
            "isWorkspace": false,
            "isArtifactRoot": false
        }
    ],
    [
        "C:\\Users\\User\\sfdx-simple\\geolocation\\force-app\\main\\default\\objects",
        {
            "state": "n",
            "sourcePath": "C:\\Users\\User\\sfdx-simple\\geolocation\\force-app\\main\\default\\objects",
            "isDirectory": true,
            "isMetadataFile": false,
            "size": 0,
            "modifiedTime": 1515959017688,
            "changeTime": 1515959017688,
            "contentHash": "57e11d2c765cc62840c8257bd379fc2d5ca11d3a",
            "isWorkspace": false,
            "isArtifactRoot": false
        }
    ],
    [
        "C:\\Users\\User\\sfdx-simple\\geolocation\\force-app\\main\\default\\objects\\Account",
        {
            "state": "n",
            "sourcePath": "C:\\Users\\User\\sfdx-simple\\geolocation\\force-app\\main\\default\\objects\\Account",
            "isDirectory": true,
            "isMetadataFile": false,
            "size": 0,
            "modifiedTime": 1515958900326,
            "changeTime": 1515958900326,
            "contentHash": "70f132fe13e692866a539996a6b9a05b46076a07",
            "isWorkspace": false,
            "isArtifactRoot": false
        }
    ],
    [
        "C:\\Users\\User\\sfdx-simple\\geolocation\\force-app\\main\\default\\objects\\Account\\fields",
        {
            "state": "n",
            "sourcePath": "C:\\Users\\User\\sfdx-simple\\geolocation\\force-app\\main\\default\\objects\\Account\\fields",
            "isDirectory": true,
            "isMetadataFile": false,
            "size": 0,
            "modifiedTime": 1515958900329,
            "changeTime": 1515958900329,
            "contentHash": "64560c84ade9015d36bd21e8436a4d2662babedc",
            "isWorkspace": false,
            "isArtifactRoot": false
        }
    ],
    [
        "C:\\Users\\User\\sfdx-simple\\geolocation\\force-app\\main\\default\\objects\\Account\\fields\\Location__c.field-meta.xml",
        {
            "state": "n",
            "sourcePath": "C:\\Users\\User\\sfdx-simple\\geolocation\\force-app\\main\\default\\objects\\Account\\fields\\Location__c.field-meta.xml",
            "isDirectory": false,
            "isMetadataFile": true,
            "size": 403,
            "modifiedTime": 1515958900336,
            "changeTime": 1515958900336,
            "contentHash": "6b6949a234f89bf80a2a4bac6f7d790775dbd596",
            "isWorkspace": false,
            "isArtifactRoot": false
        }
    ],
    [
        "C:\\Users\\User\\sfdx-simple\\geolocation\\force-app\\main\\default\\objects\\SFDXTestObject__c",
        {
            "state": "n",
            "sourcePath": "C:\\Users\\User\\sfdx-simple\\geolocation\\force-app\\main\\default\\objects\\SFDXTestObject__c",
            "isDirectory": true,
            "isMetadataFile": false,
            "size": 0,
            "modifiedTime": 1515959017691,
            "changeTime": 1515959017691,
            "contentHash": "d5cd2d58f5cff1580b64a66ef616e3d6214c3368",
            "isWorkspace": false,
            "isArtifactRoot": false
        }
    ],
    [
        "C:\\Users\\User\\sfdx-simple\\geolocation\\force-app\\main\\default\\objects\\SFDXTestObject__c\\SFDXTestObject__c.object-meta.xml",
        {
            "state": "n",
            "sourcePath": "C:\\Users\\User\\sfdx-simple\\geolocation\\force-app\\main\\default\\objects\\SFDXTestObject__c\\SFDXTestObject__c.object-meta.xml",
            "isDirectory": false,
            "isMetadataFile": true,
            "size": 2156,
            "modifiedTime": 1515959017692,
            "changeTime": 1515959017692,
            "contentHash": "40ffd01cbdc1f457cec12a6d217a212b8b46e11c",
            "isWorkspace": false,
            "isArtifactRoot": false
        }
    ],
    [
        "C:\\Users\\User\\sfdx-simple\\geolocation\\force-app\\main\\default\\permissionsets",
        {
            "state": "n",
            "sourcePath": "C:\\Users\\User\\sfdx-simple\\geolocation\\force-app\\main\\default\\permissionsets",
            "isDirectory": true,
            "isMetadataFile": false,
            "size": 0,
            "modifiedTime": 1515958900404,
            "changeTime": 1515958900404,
            "contentHash": "3997b26d8a7f6692d5d741c4ac6d7985687d23ba",
            "isWorkspace": false,
            "isArtifactRoot": false
        }
    ],
    [
        "C:\\Users\\User\\sfdx-simple\\geolocation\\force-app\\main\\default\\permissionsets\\Geolocation.permissionset-meta.xml",
        {
            "state": "n",
            "sourcePath": "C:\\Users\\User\\sfdx-simple\\geolocation\\force-app\\main\\default\\permissionsets\\Geolocation.permissionset-meta.xml",
            "isDirectory": false,
            "isMetadataFile": true,
            "size": 700,
            "modifiedTime": 1515958900405,
            "changeTime": 1515958900405,
            "contentHash": "496e401c71968f859fd216158a231c887bbde781",
            "isWorkspace": false,
            "isArtifactRoot": false
        }
    ],
    [
        "C:\\Users\\User\\sfdx-simple\\geolocation\\force-app\\main\\default\\profiles",
        {
            "state": "n",
            "sourcePath": "C:\\Users\\User\\sfdx-simple\\geolocation\\force-app\\main\\default\\profiles",
            "isDirectory": true,
            "isMetadataFile": false,
            "size": 0,
            "modifiedTime": 1515959017737,
            "changeTime": 1515959017737,
            "contentHash": "9c367b0e719eb8c48c5b0d9cbfb5f580a4bd6717",
            "isWorkspace": false,
            "isArtifactRoot": false
        }
    ],
    [
        "C:\\Users\\User\\sfdx-simple\\geolocation\\force-app\\main\\default\\profiles\\Admin.profile-meta.xml",
        {
            "state": "n",
            "sourcePath": "C:\\Users\\User\\sfdx-simple\\geolocation\\force-app\\main\\default\\profiles\\Admin.profile-meta.xml",
            "isDirectory": false,
            "isMetadataFile": true,
            "size": 17351,
            "modifiedTime": 1515959017743,
            "changeTime": 1515959017743,
            "contentHash": "b3869b82e3a71470c8075c103359ae3e1ec36af2",
            "isWorkspace": false,
            "isArtifactRoot": false
        }
    ],
    [
        "C:\\Users\\User\\sfdx-simple\\geolocation\\force-app\\main\\default\\profiles\\Custom%3A Marketing Profile.profile-meta.xml",
        {
            "state": "n",
            "sourcePath": "C:\\Users\\User\\sfdx-simple\\geolocation\\force-app\\main\\default\\profiles\\Custom%3A Marketing Profile.profile-meta.xml",
            "isDirectory": false,
            "isMetadataFile": true,
            "size": 4329,
            "modifiedTime": 1515959017722,
            "changeTime": 1515959017722,
            "contentHash": "559973a11f803b3c019360128640392f127ff623",
            "isWorkspace": false,
            "isArtifactRoot": false
        }
    ],
    [
        "C:\\Users\\User\\sfdx-simple\\geolocation\\force-app\\main\\default\\profiles\\Custom%3A Sales Profile.profile-meta.xml",
        {
            "state": "n",
            "sourcePath": "C:\\Users\\User\\sfdx-simple\\geolocation\\force-app\\main\\default\\profiles\\Custom%3A Sales Profile.profile-meta.xml",
            "isDirectory": false,
            "isMetadataFile": true,
            "size": 4325,
            "modifiedTime": 1515959017705,
            "changeTime": 1515959017705,
            "contentHash": "734c9daae4728e956e1b07d167991ec8de8faff5",
            "isWorkspace": false,
            "isArtifactRoot": false
        }
    ],
    [
        "C:\\Users\\User\\sfdx-simple\\geolocation\\force-app\\main\\default\\profiles\\Custom%3A Support Profile.profile-meta.xml",
        {
            "state": "n",
            "sourcePath": "C:\\Users\\User\\sfdx-simple\\geolocation\\force-app\\main\\default\\profiles\\Custom%3A Support Profile.profile-meta.xml",
            "isDirectory": false,
            "isMetadataFile": true,
            "size": 4665,
            "modifiedTime": 1515959017715,
            "changeTime": 1515959017715,
            "contentHash": "663df3f9253855949ab721483348d6b9555b90fd",
            "isWorkspace": false,
            "isArtifactRoot": false
        }
    ],
    [
        "C:\\Users\\User\\sfdx-simple\\geolocation",
        {
            "state": "n",
            "sourcePath": "C:\\Users\\User\\sfdx-simple\\geolocation",
            "isDirectory": true,
            "isMetadataFile": false,
            "size": 0,
            "modifiedTime": 1515961241986,
            "changeTime": 1515961241986,
            "contentHash": "4422c14d4311811675b6d1e4072645d235af4fbd",
            "isWorkspace": true,
            "isArtifactRoot": false
        }
    ]
]